1 N 1 1S -50232.75664916 -50203.03841523 29.71823393
2 N 1 1S -50232.75664916 -50203.00502161 29.75162755
3 N 1 1S -50232.75664916 -50203.03358017 29.72306899
4 N 1 1S -50232.75664916 -50203.07232503 29.68432413
5 N 1 1S -50232.75664916 -50203.04477922 29.71186994
6 N 1 1S -50232.75664916 -50202.98272396 29.77392520
7 N 1 1S -50232.75664916 -50202.99423106 29.76241810
8 N 1 1S -50232.75664916 -50203.04517861 29.71147055
9 N 1 1S -50232.75664916 -50203.00596929 29.75067987
10 N 1 1S -50232.75664916 -50203.00099919 29.75564997
11 N 1 1S -50232.75664916 -50203.08520925 29.67143991
12 N 1 1S -50232.75664916 -50203.09402440 29.66262476
13 N 1 1S -50232.75664916 -50203.04750605 29.70914311
14 N 1 1S -50232.75664916 -50202.98831513 29.76833403
15 N 1 1S -50232.75664916 -50203.01343723 29.74321193
16 N 1 1S -50232.75664916 -50202.97935719 29.77729197
17 N 1 1S -50232.75664916 -50203.04221498 29.71443418
18 O 1 1S -50232.75664916 -50193.15428628 39.60236288
19 O 1 1S -50232.75664916 -50193.14751014 39.60913902
20 O 1 1S -50232.75664916 -50193.12038299 39.63626617
21 O 1 1S -50232.75664916 -50193.11619384 39.64045532
22 O 1 1S -50232.75664916 -50193.12167127 39.63497789
23 O 1 1S -50232.75664916 -50193.14129700 39.61535216
24 O 1 1S -50232.75664916 -50193.08170775 39.67494141
25 O 1 1S -50232.75664916 -50193.09723195 39.65941721
26 O 1 1S -50232.75664916 -50193.07603285 39.68061631
27 O 1 1S -50232.75664916 -50193.13344054 39.62320862
28 O 1 1S -50232.75664916 -50193.13104367 39.62560549
29 O 1 1S -50232.75664916 -50193.11633408 39.64031508
30 O 1 1S -50232.75664916 -50193.11153859 39.64511057
31 O 1 1S -50232.75664916 -50193.12424771 39.63240145
32 O 1 1S -50232.75664916 -50193.11982013 39.63682903
33 Ti 4 2P -50232.75664916 -50199.35384857 33.40280059
34 Ti 4 2P -50232.75664916 -50199.33706942 33.41957974
35 Ti 4 2P -50232.75664916 -50199.35356110 33.40308806
36 Ti 4 2P -50232.75664916 -50199.34141357 33.41523559
37 Ti 4 2P -50232.75664916 -50199.32987047 33.42677869
38 Ti 4 2P -50232.75664916 -50199.34239889 33.41425027
39 Ti 4 2P -50232.75664916 -50199.34565004 33.41099912
40 Ti 4 2P -50232.75664916 -50199.33412943 33.42251973
41 Ti 4 2P -50232.75664916 -50199.35505247 33.40159669
42 Ti 4 2P -50232.75664916 -50199.32469778 33.43195138
43 Ti 4 2P -50232.75664916 -50199.35265963 33.40398953
44 Ti 4 2P -50232.75664916 -50199.35641294 33.40023622
45 Ti 4 2P -50232.75664916 -50199.32173910 33.43491006
46 Ti 4 2P -50232.75664916 -50199.34853904 33.40811012
47 Ti 4 2P -50232.75664916 -50199.32652154 33.43012762
48 Ti 4 2P -50232.75664916 -50199.32951410 33.42713506
49 Ti 4 2P -50232.75664916 -50199.35954990 33.39709926
50 Ti 4 2P -50232.75664916 -50199.35441556 33.40223360
51 Ti 4 2P -50232.75664916 -50199.33998830 33.41666086
52 Ti 4 2P -50232.75664916 -50199.35341292 33.40323624
53 Ti 4 2P -50232.75664916 -50199.34229857 33.41435059
54 Ti 4 2P -50232.75664916 -50199.34481566 33.41183350
55 Ti 4 2P -50232.75664916 -50199.33181930 33.42482986
56 Ti 4 2P -50232.75664916 -50199.35012435 33.40652481
57 Ti 4 2P -50232.75664916 -50199.33861900 33.41803016
58 Ti 4 2P -50232.75664916 -50199.35139877 33.40525039
59 Ti 4 2P -50232.75664916 -50199.35418028 33.40246888
